<svg version="1.1" xmlns="http://www.w3.org/2000/svg" xmlns:xlink="http://www.w3.org/1999/xlink" x="0px" y="0px"
	 viewBox="0 0 113.4 91.9" enable-background="new 0 0 113.4 91.9" xml:space="preserve">
<path fill="#E6E7E8" d="M14.8,14.2H67c1.1,0,2,0.9,2,2v62.9c0,1.1-0.9,2-2,2H14.8c-1.1,0-2-0.9-2-2V16.2
	C12.9,15.1,13.7,14.2,14.8,14.2z"/>
<path fill="#008B3B" d="M41.2,0.9c-7.9-0.1-14.4,6.4-14.4,14.3v12.4c0,0.7,0.5,1.2,1.2,1.2h0c0.7,0,1.2-0.5,1.2-1.2V15.2
	c0-6.4,5.1-11.8,11.5-11.9c6.5-0.1,11.9,5.2,11.9,11.7v12.6c0,0.7,0.5,1.2,1.2,1.2h0c0.7,0,1.2-0.5,1.2-1.2V15.1
	C55,7.3,48.8,1.1,41.2,0.9z"/>
<path fill="#FFFFFF" d="M37.8,51.2c-0.2-2.2-3.3-6-5.9-5.5c-6.7,1.3-9.4,9-9.4,9s5.2-1.3,9.4-3.2C31.9,51.4,36.9,49,37.8,51.2z"/>
<path fill="#C6C6C6" d="M31.9,51.4c-4.2,1.9-9.4,3.2-9.4,3.2l11.1-0.5c0,0,3.8-0.5,4.1-2.3c0-0.2,0-0.4,0-0.6
	C36.9,49,31.9,51.4,31.9,51.4z"/>
<path fill="#FFFFFF" d="M7.9,51.2c0.2-2.2,3.3-6,5.9-5.5c6.7,1.3,9.4,9,9.4,9s-5.2-1.3-9.4-3.2C13.8,51.4,8.8,49,7.9,51.2z"/>
<path fill="#C6C6C6" d="M13.8,51.4c4.2,1.9,9.4,3.2,9.4,3.2L12,54.1c0,0-3.8-0.5-4.1-2.3c0-0.2,0-0.4,0-0.6
	C8.8,49,13.8,51.4,13.8,51.4z"/>
<path fill="#D10910" d="M2.2,54.3h41.2c0.9,0,1.6,0.7,1.6,1.6v4.7c0,0.9-0.7,1.6-1.6,1.6H2.2c-0.9,0-1.6-0.7-1.6-1.6v-4.7
	C0.6,55.1,1.4,54.3,2.2,54.3z"/>
<path fill="#D10910" d="M1.6,63.4h42.5v25.8c0,1.1-0.9,1.9-1.9,1.9H3.5c-1.1,0-1.9-0.9-1.9-1.9V63.4z"/>
<path fill="#008B3B" d="M55.2,42.2h56.3c0.6,0,1.2,0.5,1.2,1.2v3.5c0,0.6-0.5,1.2-1.2,1.2H55.2c-0.6,0-1.2-0.5-1.2-1.2v-3.5
	C54,42.7,54.5,42.2,55.2,42.2z"/>
<path fill="#008B3B" d="M54.7,48.8H112v19c0,0.8-0.6,1.4-1.4,1.4H56.1c-0.8,0-1.4-0.6-1.4-1.4V48.8z"/>
<rect x="19" y="53.8" fill="#C6C6C6" width="7.6" height="37.3"/>
<path fill="#FFFFFF" d="M17.8,63.9c0.1-1.1,0-2.3-0.2-3.9c0-0.3-0.3-0.5-0.6-0.4c-1.6,0.2-2.8,0.4-3.8,0.8c-0.5,0.2-0.9-0.4-0.5-0.8
	c2.2-2.7,4.3-4.3,7.3-6.3c1.5,1.2,2.8-0.3,4.3,0.8c-1.2,3.4-3.5,7.3-5.6,10.1C18.4,64.6,17.7,64.4,17.8,63.9z"/>
<path fill="#FFFFFF" d="M27.6,63.9c-0.1-1.1,0-2.3,0.2-3.9c0-0.3,0.3-0.5,0.6-0.4c1.6,0.2,2.8,0.4,3.8,0.8c0.5,0.2,0.9-0.4,0.5-0.8
	c-2.2-2.7-4.3-4.3-7.3-6.3c-1.5,1.2-2.7-0.5-4.2,0.7c1.2,3.4,3.4,7.5,5.5,10.3C27,64.6,27.7,64.4,27.6,63.9z"/>
<path fill="#C6C6C6" d="M22.8,51.3c-1.1,0-2.1,0.6-2.6,1.5c-0.4,0.7,0.1,1.5,0.9,1.5h3.5c0.8,0,1.3-0.8,0.9-1.5
	C25,51.9,24,51.3,22.8,51.3z"/>
<path fill="#D10910" d="M94.2,33.7c-0.2-1.1-0.7-2.1-1.6-2.8c-1.8-1.4-4.5-1-5.9,0.8c-1.1,1.4-2.5,5.4-3.4,8.1
	c-0.9-2.7-2.3-6.7-3.4-8.1c-1.4-1.8-4-2.2-5.9-0.8c-0.9,0.7-1.5,1.7-1.6,2.8c-0.2,1.1,0.1,2.2,0.8,3.1c1.6,2.1,8.8,6.1,9.6,6.6
	c0.1,0.1,0.3,0.1,0.4,0.1c0.1,0,0.3,0,0.4-0.1l0,0c0.8-0.5,8.1-4.5,9.6-6.6C94.1,35.9,94.4,34.8,94.2,33.7z M74.6,35.8
	c-0.4-0.5-0.6-1.2-0.5-1.9c0.1-0.7,0.4-1.3,1-1.7c0.5-0.3,1-0.5,1.5-0.5c0.8,0,1.5,0.3,2,1c0.9,1.2,2.4,5.3,3.3,8.1
	C79.3,39.3,75.5,37,74.6,35.8z M92.1,35.8c-0.9,1.2-4.7,3.5-7.3,5.1c0.9-2.8,2.4-6.9,3.3-8.1c0.5-0.6,1.2-1,2-1
	c0.5,0,1.1,0.2,1.5,0.5c0.5,0.4,0.9,1,1,1.7C92.6,34.6,92.5,35.3,92.1,35.8z"/>
<path fill="#D10910" d="M83.3,43.1c-0.1,0-0.2,0-0.3-0.1l-12.6-5c-0.4-0.2-0.6-0.7-0.5-1.1c0.2-0.4,0.7-0.6,1.1-0.5l12.3,4.9
	l12.3-4.9c0.4-0.2,0.9,0,1.1,0.5c0.2,0.4,0,0.9-0.5,1.1l-12.6,5C83.6,43.1,83.4,43.1,83.3,43.1z"/>
<rect x="80.8" y="42.3" fill="#C6C6C6" width="5" height="27.1"/>
</svg>
