<svg version="1.1" xmlns="http://www.w3.org/2000/svg" xmlns:xlink="http://www.w3.org/1999/xlink" x="0px" y="0px"
	 viewBox="0 0 87.7 52.5" enable-background="new 0 0 87.7 52.5" xml:space="preserve">
<g>
	<polygon fill="#DEDEDF" points="61.3,2.2 49.5,4.7 24.2,10 12.7,12.4 14.1,19.4 18.5,21.2 21.7,17.9 26.1,16.9 51.1,11.7 62.7,9.3 
		64.4,5.6 	"/>
	<g>
		<path fill="#006D2C" d="M53.1,22.5c-0.7,0-1.3-0.5-1.5-1.2L47.7,3.5c-0.2-0.8,0.3-1.6,1.1-1.8c0.8-0.2,1.6,0.3,1.8,1.1l3.9,17.9
			c0.2,0.8-0.3,1.6-1.1,1.8C53.3,22.5,53.2,22.5,53.1,22.5z"/>
		<path fill="#006D2C" d="M27.4,23.6c-0.7,0-1.3-0.5-1.5-1.2L22.7,8.6C22.5,7.8,23,7,23.8,6.8c0.8-0.2,1.6,0.3,1.8,1.1l3.3,13.9
			c0.2,0.8-0.3,1.6-1.1,1.8C27.7,23.6,27.6,23.6,27.4,23.6z"/>
	</g>
	<polygon fill="#008B3B" points="77.7,25.2 14.1,25.2 14.1,19.4 21.7,17.9 26.4,17.9 52.5,17.9 66.3,17.9 	"/>
	<path fill="#006D2C" d="M84.3,28.6L81.9,27c-0.2-0.2-0.5-0.3-0.8-0.3H11.4c-2.4,0-4.8,0.5-7,1.4l-1,0.4c-0.8,0.3-1.6,0-2-0.8l0,0
		c-0.3-0.8,0-1.6,0.8-2l1-0.4c2.6-1.1,5.4-1.7,8.2-1.7h70.6c0.3,0,0.6,0.1,0.8,0.3l3.2,2.2c0.7,0.5,0.9,1.4,0.4,2.1v0
		C86,28.9,85,29.1,84.3,28.6z"/>
	<g>
		<path fill="#DEDEDF" d="M31.1,44.2c0-2.8-2.3-5.1-5.1-5.1c-2.8,0-5.1,2.3-5.1,5.1c0,2.8,2.3,5.1,5.1,5.1
			C28.8,49.3,31.1,47,31.1,44.2z"/>
		<path fill="#DEDEDF" d="M48.8,45.1c0-2.3-1.9-4.2-4.2-4.2c-2.3,0-4.2,1.9-4.2,4.2c0,2.3,1.9,4.2,4.2,4.2
			C47,49.3,48.8,47.4,48.8,45.1z"/>
		<path fill="#DEDEDF" d="M70,43.9c0-3-2.4-5.4-5.4-5.4c-3,0-5.4,2.4-5.4,5.4s2.4,5.4,5.4,5.4C67.6,49.3,70,46.9,70,43.9z"/>
		<path fill="#DEDEDF" d="M82.5,37.8c1-0.7,1.7-1.9,1.7-3.2c0-2.1-1.7-3.8-3.8-3.8c-2.1,0-3.8,1.7-3.8,3.8c0,2.1,1.7,3.8,3.8,3.8
			C81.1,38.4,81.9,38.2,82.5,37.8z"/>
		<path fill="#DEDEDF" d="M7.2,40c0.5,0.2,1,0.3,1.6,0.3c2.6,0,4.7-2.1,4.7-4.7c0-2.6-2.1-4.7-4.7-4.7c-2.6,0-4.7,2.1-4.7,4.7
			C4.1,37.6,5.4,39.3,7.2,40C7.2,40,7.2,40,7.2,40z"/>
	</g>
	<path fill="#008B3B" d="M82.5,37.8L76.4,46c-1.6,1.6-3.8,3.3-6.1,3.3h-5.7c3,0,5.4-2.4,5.4-5.4c0-3-2.4-5.4-5.4-5.4
		c-3,0-5.4,2.4-5.4,5.4s2.4,5.4,5.4,5.4H44.6c2.3,0,4.2-1.9,4.2-4.2c0-2.3-1.9-4.2-4.2-4.2c-2.3,0-4.2,1.9-4.2,4.2
		c0,2.3,1.9,4.2,4.2,4.2H26c2.8,0,5.1-2.3,5.1-5.1c0-2.8-2.3-5.1-5.1-5.1c-2.8,0-5.1,2.3-5.1,5.1c0,2.8,2.3,5.1,5.1,5.1h-3.8
		c-1.3,0-2.7-0.3-3.9-0.8L7.2,40c0.5,0.2,1,0.3,1.6,0.3c2.6,0,4.7-2.1,4.7-4.7c0-2.6-2.1-4.7-4.7-4.7l71.5-0.1
		c-2.1,0-3.8,1.7-3.8,3.8c0,2.1,1.7,3.8,3.8,3.8C81.1,38.4,81.9,38.2,82.5,37.8z"/>
	<g>
		<path fill="#006D2C" d="M25.3,51.9c-3.7,0-6.6-3-6.6-6.6c0-3.7,3-6.6,6.6-6.6c3.7,0,6.6,3,6.6,6.6C31.9,48.9,28.9,51.9,25.3,51.9z
			 M25.3,41.7c-1.9,0-3.5,1.6-3.5,3.5c0,1.9,1.6,3.5,3.5,3.5c1.9,0,3.5-1.6,3.5-3.5C28.8,43.3,27.2,41.7,25.3,41.7z"/>
		<path fill="#006D2C" d="M43.9,51.9c-3.2,0-5.8-2.6-5.8-5.8s2.6-5.8,5.8-5.8c3.2,0,5.8,2.6,5.8,5.8C49.7,49.3,47.1,51.9,43.9,51.9z
			 M43.9,43.5c-1.5,0-2.6,1.2-2.6,2.6c0,1.5,1.2,2.6,2.6,2.6c1.5,0,2.6-1.2,2.6-2.6C46.6,44.6,45.4,43.5,43.9,43.5z"/>
		<path fill="#006D2C" d="M63.9,51.9c-3.8,0-7-3.1-7-7c0-3.8,3.1-7,7-7c3.8,0,7,3.1,7,7C70.8,48.7,67.7,51.9,63.9,51.9z M63.9,41
			c-2.1,0-3.8,1.7-3.8,3.9c0,2.1,1.7,3.8,3.8,3.8c2.1,0,3.9-1.7,3.9-3.8C67.7,42.8,66,41,63.9,41z"/>
		<path fill="#006D2C" d="M79.6,41c-3,0-5.4-2.4-5.4-5.4s2.4-5.4,5.4-5.4c3,0,5.4,2.4,5.4,5.4c0,1.8-0.9,3.5-2.4,4.5
			C81.7,40.7,80.7,41,79.6,41z M79.6,33.3c-1.3,0-2.3,1-2.3,2.3c0,1.3,1,2.3,2.3,2.3c0.5,0,0.9-0.1,1.3-0.4c0,0,0,0,0,0
			c0.6-0.4,1-1.1,1-1.9C81.9,34.3,80.9,33.3,79.6,33.3z"/>
		<path fill="#006D2C" d="M8.1,42.8c-0.7,0-1.4-0.1-2.1-0.4c0,0,0,0,0,0c-2.4-0.9-4.1-3.3-4.1-5.9c0-3.4,2.8-6.2,6.2-6.2
			c3.4,0,6.2,2.8,6.2,6.2C14.3,40,11.5,42.8,8.1,42.8z M7.1,39.5c0.3,0.1,0.7,0.2,1,0.2c1.7,0,3.1-1.4,3.1-3.1s-1.4-3.1-3.1-3.1
			S5,34.9,5,36.6C5,37.9,5.8,39.1,7.1,39.5C7,39.5,7,39.5,7.1,39.5z"/>
		<path fill="#006D2C" d="M69.5,51.9h-48c-1.5,0-3.1-0.3-4.5-0.9c0,0-0.1,0-0.1,0l-11-8.5c-2.4-0.9-4-3.3-4-5.8
			c0-3.4,2.8-6.2,6.2-6.2l71.5-0.1h0c3,0,5.4,2.4,5.4,5.4c0,1.7-0.8,3.4-2.2,4.4l-6,8.2C74.8,50,72.2,51.9,69.5,51.9z M18.2,48.1
			c1.1,0.4,2.2,0.6,3.3,0.6h48c1.9,0,3.7-1.6,5-2.9l6.1-8.2c0.1-0.1,0.1-0.1,0.2-0.2c0.6-0.4,1-1.1,1-1.9c0-1.3-1-2.3-2.3-2.3
			L8.1,33.5c-1.7,0-3.1,1.4-3.1,3.1c0,1.3,0.8,2.5,2,2.9c0.1,0,0.1,0,0.2,0.1L18.2,48.1z"/>
	</g>
	<path fill="#D10910" d="M62.7,9.3l-1.5-7.1c4.3-0.9,8.7-1,13-0.4c1.3,0.2,1.6,1.9,0.5,2.5C73.4,5.3,72,6,70.5,6.7
		C68,7.8,65.4,8.7,62.7,9.3z"/>
</g>
</svg>
