<?xml version="1.0" encoding="utf-8"?>
<!-- Generator: Adobe Illustrator 18.0.0, SVG Export Plug-In . SVG Version: 6.00 Build 0)  -->
<!DOCTYPE svg PUBLIC "-//W3C//DTD SVG 1.1//EN" "http://www.w3.org/Graphics/SVG/1.1/DTD/svg11.dtd">
<svg version="1.1" id="Слой_1" xmlns="http://www.w3.org/2000/svg" xmlns:xlink="http://www.w3.org/1999/xlink" x="0px" y="0px"
	 viewBox="0 0 113.4 104.2" enable-background="new 0 0 113.4 104.2" xml:space="preserve">
<g>
	<path fill="#008B3B" d="M104.5,100.6H43.2c-4.5,0-8.6-3.6-9.1-8.1L24.4,9.6c-0.5-4.5,2.7-8.1,7.2-8.1h61.3c4.5,0,8.6,3.6,9.1,8.1
		l9.7,82.9C112.2,97,109,100.6,104.5,100.6z"/>
</g>
<g>
	<path fill="#FFFFFF" d="M97.1,88.3H49.7c-3.5,0-6.6-2.8-7-6.3l-7.5-64.1c-0.4-3.5,2.1-6.3,5.6-6.3h47.4c3.5,0,6.6,2.8,7,6.3
		l7.5,64.1C103.1,85.5,100.6,88.3,97.1,88.3z"/>
</g>
<g>
	<polygon fill="#706F6F" points="26.3,41.8 2.7,88.3 9.5,98.6 22.2,92.3 30.7,77.8 	"/>
	<path fill="#FFFFFF" d="M9.1,100.1L1.4,88.4L27,37.8l4.8,40.2l-8.8,15.1L9.1,100.1z M4.1,88.2l5.8,8.9l11.5-5.7l8.1-13.9l-3.8-31.9
		L4.1,88.2z"/>
</g>
</svg>
